<?xml version="1.0" encoding="UTF-8"?>
<svg width="39px" height="55px" viewBox="0 0 39 55" version="1.1" xmlns="http://www.w3.org/2000/svg" xmlns:xlink="http://www.w3.org/1999/xlink">
    <!-- Generator: Sketch 47.1 (45422) - http://www.bohemiancoding.com/sketch -->
    <title>Oval</title>
    <desc>Created with Sketch.</desc>
    <defs></defs>
    <g id="RJ-Schakt" stroke="none" stroke-width="1" fill="none" fill-rule="evenodd">
        <g id="Startsida" transform="translate(-1406.000000, -1890.000000)" fill="#FFFFFF">
            <g id="Tjänster" transform="translate(0.000000, 1801.000000)">
                <g id="Dränering" transform="translate(1140.000000, 0.000000)">
                    <path d="M285.5,144 C296.269553,144 305,135.381481 305,124.75 C305,117.662346 298.5,105.745679 285.5,89 C272.5,105.745679 266,117.662346 266,124.75 C266,135.381481 274.730447,144 285.5,144 Z" id="Oval"></path>
                </g>
            </g>
        </g>
    </g>
</svg>